// Jest Snapshot v1, https://goo.gl/fbAQLP

exports[`Repostiory reducer should close repository - 2 1`] = `
Object {
  "cloneWindow": Object {
    "cloneProgress": 0,
    "isLoading": false,
    "isOpen": false,
  },
  "isAuthenticating": false,
  "isRepoLoading": true,
  "loadedRepositoryIndex": 0,
  "openRepositories": Array [
    "C:/test/directory",
  ],
  "recentRepositories": Array [],
}
`;

exports[`Repostiory reducer should close repository 1`] = `
Object {
  "cloneWindow": Object {
    "cloneProgress": 0,
    "isLoading": false,
    "isOpen": false,
  },
  "isAuthenticating": false,
  "isRepoLoading": true,
  "loadedRepositoryIndex": 0,
  "openRepositories": Array [
    "C:/test/haha",
  ],
  "recentRepositories": Array [],
}
`;

exports[`Repostiory reducer should open repository 1`] = `
Object {
  "cloneWindow": Object {
    "cloneProgress": 0,
    "isLoading": false,
    "isOpen": false,
  },
  "isAuthenticating": false,
  "isRepoLoading": true,
  "loadedRepositoryIndex": -1,
  "openRepositories": Array [
    "C:/test/directory",
  ],
  "recentRepositories": Array [],
}
`;

exports[`Repostiory reducer should open repository 2`] = `
Object {
  "cloneWindow": Object {
    "cloneProgress": 0,
    "isLoading": false,
    "isOpen": false,
  },
  "isAuthenticating": false,
  "isRepoLoading": true,
  "loadedRepositoryIndex": 1,
  "openRepositories": Array [
    "C:/test/directory",
    "C:/test/haha",
  ],
  "recentRepositories": Array [],
}
`;
